ARG_MAX            = 131072
CHILD_MAX          = 999
clock ticks/second = 100
NGROUPS_MAX        = 32
OPEN_MAX           = 1024
STREAM_MAX         = 256
TZNAME_MAX         = 4
_POSIX_JOB_CONTROL = 1
_POSIX_SAVED_IDS   = 1
_POSIX_VERSION     = 199506
MAX_CANON       = 255
MAX_INPUT       = 255
_POSIX_VDISABLE = 0
LINK_MAX        = 32000
NAME_MAX        = 255
PATH_MAX        = 4095
PIPE_BUF        = 4096
_POSIX_NO_TRUNC = 1
_POSIX_CHOWN_RESTRICTED = 1
